{
    "measure" : "reward",
    "thresholds" : [18, 18, 18, 18],
    "min_lesson_length" : 5,
    "signal_smoothing" : true, 
    "parameters" : 
    {
        "MapSize" : [0.5, 0.75,  1,  1.5,  2]
    }
}
