%YAML 1.1
%TAG !u! tag:unity3d.com,2011:
--- !u!114 &11400000
MonoBehaviour:
  m_ObjectHideFlags: 0
  m_CorrespondingSourceObject: {fileID: 0}
  m_PrefabInstance: {fileID: 0}
  m_PrefabAsset: {fileID: 0}
  m_GameObject: {fileID: 0}
  m_Enabled: 1
  m_EditorHideFlags: 0
  m_Script: {fileID: 11500000, guid: 8b23992c8eb17439887f5e944bf04a40, type: 3}
  m_Name: VisualLearningBrain
  m_EditorClassIdentifier: 
  brainParameters:
    vectorObservationSize: 0
    numStackedVectorObservations: 1
    vectorActionSize: 030000000300000003000000
    cameraResolutions:
    - width: 84
      height: 84
      blackAndWhite: 0
    vectorActionDescriptions:
    - MoveForwardsAction
    - RotateAction
    - MoveSidewardsAction
    vectorActionSpaceType: 0
  model: {fileID: 5022602860645237092, guid: fd2ba7c17518ab342b0d6a96c302428d, type: 3}
  inferenceDevice: 1
