%YAML 1.1
%TAG !u! tag:unity3d.com,2011:
--- !u!114 &11400000
MonoBehaviour:
  m_ObjectHideFlags: 0
  m_CorrespondingSourceObject: {fileID: 0}
  m_PrefabInstance: {fileID: 0}
  m_PrefabAsset: {fileID: 0}
  m_GameObject: {fileID: 0}
  m_Enabled: 1
  m_EditorHideFlags: 0
  m_Script: {fileID: 11500000, guid: 41e9bda8f3cf1492fa74926a530f6f70, type: 3}
  m_Name: VisualPlayerBrain
  m_EditorClassIdentifier: 
  brainParameters:
    vectorObservationSize: 0
    numStackedVectorObservations: 1
    vectorActionSize: 030000000300000003000000
    cameraResolutions:
    - width: 84
      height: 84
      blackAndWhite: 0
    vectorActionDescriptions:
    - MoveForwardsAction
    - RotateAction
    - MoveSidewardsAction
    vectorActionSpaceType: 0
  keyContinuousPlayerActions: []
  axisContinuousPlayerActions: []
  discretePlayerActions:
  - key: 119
    branchIndex: 0
    value: 1
  - key: 115
    branchIndex: 0
    value: 2
  - key: 97
    branchIndex: 1
    value: 1
  - key: 100
    branchIndex: 1
    value: 2
  - key: 113
    branchIndex: 2
    value: 1
  - key: 101
    branchIndex: 2
    value: 2
