{
    "measure" : "reward",
    "thresholds" : [9, 18, 45, 63],
    "min_lesson_length" : 50,
    "signal_smoothing" : true, 
    "parameters" : 
    {
        "woodPileCount" : [10, 5,  5,  7,  9],
		"spiderCount" :   [0, 3, 10, 20, 40],
		"forestActive" :  [0, 0,  0,  1,  1],
		"woodPileColliderRadius" :  [15, 15, 7.5, 2.5, 0.5],
		"woodStoreColliderRadius" : [40, 25, 10, 5, 0.5]
    }
}
